
<svg width="52px" height="67px" viewBox="177 2133 52 67" version="1.1" xmlns="http://www.w3.org/2000/svg" xmlns:xlink="http://www.w3.org/1999/xlink">
    <!-- Generator: Sketch 40.1 (33804) - http://www.bohemiancoding.com/sketch -->
    <desc>Created with Sketch.</desc>
    <defs></defs>
    <g id="noun_520904_cc" stroke="none" stroke-width="1" fill="none" fill-rule="evenodd" transform="translate(177.000000, 2133.000000)">
        <g id="Group" fill="#6FC754">
            <g id="Shape">
                <path d="M51.4561224,16.1301181 L35.7765306,0.540748031 C35.4316327,0.197834646 34.9540816,0 34.45,0 L5.61122449,0 C2.52040816,0 0,2.50590551 0,5.57893701 L0,61.407874 C0,64.4940945 2.52040816,67 5.61122449,67 L46.3755102,67 C49.4663265,67 51.9867347,64.4940945 51.9867347,61.421063 L51.9867347,17.4490157 C52,16.9610236 51.8010204,16.4862205 51.4561224,16.1301181 L51.4561224,16.1301181 Z M36.3204082,6.35708661 L45.6061224,15.5893701 L36.3204082,15.5893701 L36.3204082,6.35708661 L36.3204082,6.35708661 Z M48.2591837,61.421063 C48.2591837,62.4498031 47.4234694,63.2807087 46.3887755,63.2807087 L5.61122449,63.2807087 C4.57653061,63.2807087 3.74081633,62.4498031 3.74081633,61.421063 L3.74081633,5.57893701 C3.74081633,4.55019685 4.57653061,3.71929134 5.61122449,3.71929134 L32.5795918,3.71929134 L32.5795918,17.4490157 C32.5795918,18.4777559 33.4153061,19.3086614 34.45,19.3086614 L48.2591837,19.3086614 L48.2591837,61.421063 L48.2591837,61.421063 Z"></path>
                <path d="M16.1438776,25.3360236 C14.8438776,25.3360236 13.7826531,24.2809055 13.7826531,22.9883858 C13.7826531,21.9596457 12.9469388,21.1287402 11.9122449,21.1287402 C10.877551,21.1287402 10.0418367,21.9596457 10.0418367,22.9883858 C10.0418367,25.692126 11.8193878,27.9738189 14.2734694,28.7651575 L14.2734694,29.7543307 C14.2734694,30.7830709 15.1091837,31.6139764 16.1438776,31.6139764 C17.1785714,31.6139764 18.0142857,30.7830709 18.0142857,29.7543307 L18.0142857,28.7519685 C20.4683673,27.9606299 22.2459184,25.678937 22.2459184,22.9751969 C22.2459184,19.6251969 19.2744898,16.9214567 15.9183673,16.9214567 C15.9714286,16.9214567 15.9183673,16.9214567 15.905102,16.9214567 C14.7112245,16.8027559 13.7826531,15.8003937 13.7826531,14.5870079 C13.7826531,13.2944882 14.8438776,12.2393701 16.1438776,12.2393701 C17.4438776,12.2393701 18.505102,13.2944882 18.505102,14.5870079 C18.505102,15.615748 19.3408163,16.4466535 20.3755102,16.4466535 C21.4102041,16.4466535 22.2459184,15.615748 22.2459184,14.5870079 C22.2459184,11.8832677 20.4683673,9.6015748 18.0142857,8.81023622 L18.0142857,7.82106299 C18.0142857,6.79232283 17.1785714,5.96141732 16.1438776,5.96141732 C15.1091837,5.96141732 14.2734694,6.79232283 14.2734694,7.82106299 L14.2734694,8.81023622 C11.8193878,9.6015748 10.0418367,11.8832677 10.0418367,14.5870079 C10.0418367,17.9370079 12.7744898,20.653937 16.1438776,20.653937 C16.0908163,20.653937 16.1438776,20.653937 16.1571429,20.653937 C17.3510204,20.7726378 18.505102,21.761811 18.505102,22.9751969 C18.505102,24.2809055 17.4438776,25.3360236 16.1438776,25.3360236 L16.1438776,25.3360236 Z"></path>
                <path d="M24.9918367,29.6224409 C24.9918367,30.6511811 25.827551,31.4820866 26.8622449,31.4820866 L43.4040816,31.4820866 C44.4387755,31.4820866 45.2744898,30.6511811 45.2744898,29.6224409 C45.2744898,28.5937008 44.4387755,27.7627953 43.4040816,27.7627953 L26.8622449,27.7627953 C25.8408163,27.7627953 24.9918367,28.5937008 24.9918367,29.6224409 L24.9918367,29.6224409 Z"></path>
                <path d="M43.4173469,36.6653543 L8.58265306,36.6653543 C7.54795918,36.6653543 6.7122449,37.4962598 6.7122449,38.525 C6.7122449,39.5537402 7.54795918,40.3846457 8.58265306,40.3846457 L43.4040816,40.3846457 C44.4387755,40.3846457 45.2744898,39.5537402 45.2744898,38.525 C45.2877551,37.4962598 44.4520408,36.6653543 43.4173469,36.6653543 L43.4173469,36.6653543 Z"></path>
                <path d="M43.4173469,45.5547244 L8.58265306,45.5547244 C7.54795918,45.5547244 6.7122449,46.3856299 6.7122449,47.4143701 C6.7122449,48.4431102 7.54795918,49.2740157 8.58265306,49.2740157 L43.4040816,49.2740157 C44.4387755,49.2740157 45.2744898,48.4431102 45.2744898,47.4143701 C45.2877551,46.3856299 44.4520408,45.5547244 43.4173469,45.5547244 L43.4173469,45.5547244 Z"></path>
                <path d="M43.4173469,54.4440945 L8.58265306,54.4440945 C7.54795918,54.4440945 6.7122449,55.275 6.7122449,56.3037402 C6.7122449,57.3324803 7.54795918,58.1633858 8.58265306,58.1633858 L43.4040816,58.1633858 C44.4387755,58.1633858 45.2744898,57.3324803 45.2744898,56.3037402 C45.2877551,55.288189 44.4520408,54.4440945 43.4173469,54.4440945 L43.4173469,54.4440945 Z"></path>
            </g>
        </g>
    </g>
</svg>
